EmployeeID	LastName	FirstName	Title	TitleOfCourtesy	BirthDate	HireDate	Address	City	Region	PostalCode	Country	HomePhone	Extension	Photo	Notes	ReportsTo
1	Davolio	Nancy	Sales Representative	Ms.	1968-12-08	1992-05-01	507 - 20th Ave. E.\r\nApt. 2A	Seattle	WA	98122	United States	206 555-9857	5467		Education includes a BA in psychology from Colorado State University.  She also completed "The Art of the Cold Call."  Nancy is a member of Toastmasters International.	2,
2	Fuller	Andrew	Vice President, Sales	Dr.	1952-02-19	1992-08-14	908 W. Capital Way	Tacoma	WA	98401	United States	206 555-9482	3457		Andrew received his BTS commercial and a Ph.D. in international marketing from the University of Dallas.  He is fluent in French and Italian and reads German.  He joined the company as a sales representative, was promoted to sales manager and was then named vice president of sales.  Andrew is a member of the Sales Management Roundtable, the Seattle Chamber of Commerce, and the Pacific Rim Importers Association.	0,
3	Leverling	Janet	Sales Representative	Ms.	1963-08-30	1992-04-01	722 Moss Bay Blvd.	Kirkland	WA	98033	United States	206 555-3412	3355		Janet has a BS degree in chemistry from Boston College.  She has also completed a certificate program in food retailing management.  Janet was hired as a sales associate and was promoted to sales representative.	2,
4	Peacock	Margaret	Sales Representative	Mrs.	1958-09-19	1993-05-03	4110 Old Redmond Rd.	Redmond	WA	98052	United States	206 555-8122	5176		Margaret holds a BA in English literature from Concordia College and an MA from the American Institute of Culinary Arts. She was temporarily assigned to the London office before returning to her permanent post in Seattle.	2,
5	Buchanan	Steven	Sales Manager	Mr.	1955-03-04	1993-10-17	14 Garrett Hill	London		SW1 8JR	United Kingdom	71 555-4848	3453		Steven Buchanan graduated from St. Andrews University, Scotland, with a BSC degree.  Upon joining the company as a sales representative, he spent 6 months in an orientation program at the Seattle office and then returned to his permanent post in London, where he was promoted to sales manager.  Mr. Buchanan has completed the courses "Successful Telemarketing" and "International Sales Management."  He is fluent in French.	2,
6	Suyama	Michael	Sales Representative	Mr.	1963-07-02	1993-10-17	Coventry House\r\nMiner Rd.	London		EC2 7JR	United Kingdom	71 555-7773	428		Michael is a graduate of Sussex University MA, economics and the University of California at Los Angeles MBA, marketing.  He has also taken the courses "Multi-Cultural Selling" and "Time Management for the Sales Professional."  He is fluent in Japanese and can read and write French, Portuguese, and Spanish.	5,
7	King	Robert	Sales Representative	Mr.	1960-05-29	1994-01-02	Edgeham Hollow\r\nWinchester Way	London		RG1 9SP	United Kingdom	71 555-5598	465		Robert King served in the Peace Corps and traveled extensively before completing his degree in English at the University of Michigan and then joining the company.  After completing a course entitled "Selling in Europe," he was transferred to the London office.	5,
8	Callahan	Laura	Inside Sales Coordinator	Ms.	1958-01-09	1994-03-05	4726 - 11th Ave. N.E.	Seattle	WA	98105	United States	206 555-1189	2344		Laura received a BA in psychology from the University of Washington.  She has also completed a course in business French.  She reads and writes French.	2,
9	Dodsworth	Anne	Sales Representative	Ms.	1969-07-02	1994-11-15	7 Houndstooth Rd.	London		WG2 7LT	United Kingdom	71 555-4444	452		Anne has a BA degree in English from St. Lawrence College.  She is fluent in French and German.	5